Similarity and heterogeneity
…
Co-occurrence of words: the wider package

library(widyr)

# separate words in sections (10 lines)
austen_section_words <- austen_books() %>%
  filter(book == "Pride & Prejudice") %>%
  mutate(section = row_number() %/% 10) %>%
  filter(section > 0) %>%
  unnest_tokens(word, text) %>%
  filter(!(word %in% stop_words$word))

austen_section_words

## # A tibble: 37,240 x 3
##    book              section word        
##    <fct>               <dbl> <chr>       
##  1 Pride & Prejudice       1 truth       
##  2 Pride & Prejudice       1 universally 
##  3 Pride & Prejudice       1 acknowledged
##  4 Pride & Prejudice       1 single      
##  5 Pride & Prejudice       1 possession  
##  6 Pride & Prejudice       1 fortune     
##  7 Pride & Prejudice       1 wife        
##  8 Pride & Prejudice       1 feelings    
##  9 Pride & Prejudice       1 views       
## 10 Pride & Prejudice       1 entering    
## #  with 37,230 more rows

# count words co-occuring within sections
word_pairs <- austen_section_words %>%
  pairwise_count(word, section, sort = TRUE)

word_pairs

## # A tibble: 796,008 x 3
##    item1     item2         n
##    <chr>     <chr>     <dbl>
##  1 darcy     elizabeth   144
##  2 elizabeth darcy       144
##  3 miss      elizabeth   110
##  4 elizabeth miss        110
##  5 elizabeth jane        106
##  6 jane      elizabeth   106
##  7 miss      darcy        92
##  8 darcy     miss         92
##  9 elizabeth bingley      91
## 10 bingley   elizabeth    91
## #  with 795,998 more rows
…
In terms of this table, the phi coefficient is:

\[\phi=\frac{n_{11}n_{00}-n_{10}n_{01}}{\sqrt{n_{1\cdot}n_{0\cdot}n_{\cdot0}n_{\cdot1}}}\]

Introduced by Karl Pearson, this measure is similar to the Pearson correlation coefficient in its interpretation.

# we need to filter for at least relatively common words first
word_cors <- austen_section_words %>%
  group_by(word) %>%
  filter(n() >= 20) %>%
  pairwise_cor(word, section, sort = TRUE)

word_cors

## # A tibble: 154,842 x 3
##    item1     item2     correlation
##    <chr>     <chr>           <dbl>
##  1 bourgh    de              0.951
##  2 de        bourgh          0.951
##  3 pounds    thousand        0.701
##  4 thousand  pounds          0.701
##  5 william   sir             0.664
##  6 sir       william         0.664
##  7 catherine lady            0.663
##  8 lady      catherine       0.663
##  9 forster   colonel         0.622
## 10 colonel   forster         0.622
## #  with 154,832 more rows

word_cors %>%
  filter(item1 == "pounds")

## # A tibble: 393 x 3
##    item1  item2     correlation
##    <chr>  <chr>           <dbl>
##  1 pounds thousand       0.701 
##  2 pounds ten            0.231 
##  3 pounds fortune        0.164 
##  4 pounds settled        0.149 
##  5 pounds wickham's      0.142 
##  6 pounds children       0.129 
##  7 pounds mother's       0.119 
##  8 pounds believed       0.0932
##  9 pounds estate         0.0890
## 10 pounds ready          0.0860
## #  with 383 more rows
…
