Community Detection and Clustering
…
main_ch <- cooc_all_edges %>%
  select(-Type) %>%
  gather(x, name, Source:Target) %>%
  group_by(name) %>%
  summarise(sum_weight = sum(weight)) %>%
  ungroup()

main_ch_l <- main_ch %>%
  arrange(desc(sum_weight)) %>%
  top_n(100, sum_weight)

main_ch_l

## # A tibble: 100 x 2
##    name               sum_weight
##    <chr>                   <dbl>
##  1 Tyrion-Lannister         2873
##  2 Jon-Snow                 2757
##  3 Cersei-Lannister         2232
##  4 Joffrey-Baratheon        1762
##  5 Eddard-Stark             1649
##  6 Daenerys-Targaryen       1608
##  7 Jaime-Lannister          1569
##  8 Sansa-Stark              1547
##  9 Bran-Stark               1508
## 10 Robert-Baratheon         1488
## #  with 90 more rows
…
